<?xml version="1.0" encoding="UTF-8" standalone="no"?>
<svg
   width="24px"
   height="24px"
   viewBox="-4 -2.5 24 24"
   preserveAspectRatio="xMinYMin"
   class="jam jam-train-f"
   version="1.1"
   id="svg4"
   sodipodi:docname="com.gitlab.maevemi.publictransport.desktop.svg"
   inkscape:version="1.1.1 (3bf5ae0d25, 2021-09-20)"
   xmlns:inkscape="http://www.inkscape.org/namespaces/inkscape"
   xmlns:sodipodi="http://sodipodi.sourceforge.net/DTD/sodipodi-0.dtd"
   xmlns="http://www.w3.org/2000/svg"
   xmlns:svg="http://www.w3.org/2000/svg">
  <defs
     id="defs8" />
  <sodipodi:namedview
     id="namedview6"
     pagecolor="#ffffff"
     bordercolor="#666666"
     borderopacity="1.0"
     inkscape:pageshadow="2"
     inkscape:pageopacity="0.0"
     inkscape:pagecheckerboard="0"
     showgrid="false"
     inkscape:zoom="29.958333"
     inkscape:cx="17.190542"
     inkscape:cy="11.916551"
     inkscape:window-width="1920"
     inkscape:window-height="1131"
     inkscape:window-x="0"
     inkscape:window-y="0"
     inkscape:window-maximized="1"
     inkscape:current-layer="layer2"
     inkscape:snap-midpoints="true" />
  <g
     inkscape:groupmode="layer"
     id="layer2"
     inkscape:label="circle"
     style="display:inline">
    <circle
       style="fill:#800080;stroke:none"
       id="path449"
       cx="8.0188417"
       cy="9.540616"
       r="11.937218" />
  </g>
  <path
     d="M4 2a2 2 0 0 0-2 2v5.038l12-.023V4a2 2 0 0 0-2-2H4zm7.667 15L11 16H5l-.667 1H4a4 4 0 0 1-4-4V4a4 4 0 0 1 4-4h8a4 4 0 0 1 4 4v9a4 4 0 0 1-4 4h-.333zM4 14a1 1 0 1 0 0-2 1 1 0 0 0 0 2zm8 0a1 1 0 1 0 0-2 1 1 0 0 0 0 2zm0-11a1 1 0 0 1 1 1v3a1 1 0 0 1-2 0V4a1 1 0 0 1 1-1zM4.314 17.029l7.371-.001.279.417A1 1 0 0 1 11.13 19H4.87a1 1 0 0 1-.833-1.555l.278-.416z"
     id="path2" />
  <g
     inkscape:groupmode="layer"
     id="layer1"
     inkscape:label="symbol" />
</svg>
