<?xml version="1.0" encoding="UTF-8" standalone="no"?>
<svg
   height="16px"
   viewBox="0 0 16 16"
   width="16px"
   version="1.1"
   id="svg4"
   xmlns="http://www.w3.org/2000/svg"
   xmlns:svg="http://www.w3.org/2000/svg">
  <defs
     id="defs8" />
  <path
     id="path2"
     d="M 1.9414062 0.01171875 C 1.0000002 0.01171875 0.015625 1 0.015625 2 L 0.015625 14.90625 C 0.015625 15.511719 0.503906 16 1.109375 16 L 1.921875 16 C 2.527344 16 3.015625 15.511719 3.015625 14.90625 L 3.015625 14 L 13 14 L 13 14.90625 C 13 15.511719 13.488281 16 14.09375 16 L 14.90625 16 C 15.511719 16 16 15.511719 16 14.90625 L 16 7.3847656 A 5.4186091 5.4193892 0 0 1 11.552734 9.4335938 A 5.4186091 5.4193892 0 0 1 9.6699219 9 L 3.1328125 9 C 2.5273445 9 2.0390625 8.511719 2.0390625 7.90625 L 2.0390625 3.0742188 C 2.0390625 2.4648438 2.5273445 1.9804687 3.1328125 1.9804688 L 6.765625 1.9804688 A 5.4186091 5.4193892 0 0 1 8.1425781 0.01171875 L 1.9414062 0.01171875 z M 12.314453 0.89648438 A 3.3570576 2.9867437 0 0 0 8.8222656 3.7578125 L 12.177734 3.8808594 L 8.8222656 3.7617188 A 3.3570576 2.9867437 0 0 0 12.042969 6.8652344 A 3.3570576 2.9867437 0 0 0 15.53125 4.0019531 A 3.3570576 2.9867437 0 0 0 12.314453 0.89648438 z M 2.5195312 10 C 3.3476562 10 4.0195313 10.671875 4.0195312 11.5 C 4.0195312 12.328125 3.3476563 13 2.5195312 13 C 1.6914063 13 1.0195314 12.328125 1.0195312 11.5 C 1.0195312 10.671875 1.6914062 10 2.5195312 10 z M 13.546875 10 C 14.375 10 15.046875 10.671875 15.046875 11.5 C 15.046875 12.328125 14.375 13 13.546875 13 C 12.71875 13 12.046875 12.328125 12.046875 11.5 C 12.046875 10.671875 12.71875 10 13.546875 10 z " />
</svg>
